what,kind,bundleId,bundleVersion,description,time
stopped,bundle,org.eclipse.wst.xsd.ui,1.2.600.v201511240159,"org.eclipse.wst.xsd.ui",1577186883956
stopped,bundle,org.eclipse.wst.xsl.debug.ui,1.0.302.v201304240928,"org.eclipse.wst.xsl.debug.ui",1577186883956
stopped,bundle,org.eclipse.wst.xml.ui,1.1.800.v201704102213,"org.eclipse.wst.xml.ui",1577186883956
stopped,bundle,org.eclipse.wst.common.ui,1.1.500.v200911182011,"org.eclipse.wst.common.ui",1577186883956
stopped,bundle,org.eclipse.wst.json.bower.ui,1.0.0.v201605201503,"org.eclipse.wst.json.bower.ui",1577186883956
stopped,bundle,org.eclipse.wst.json.eslint.ui,1.0.0.v201605201503,"org.eclipse.wst.json.eslint.ui",1577186883957
stopped,bundle,org.eclipse.wst.json.jshint.ui,1.0.0.v201605201503,"org.eclipse.wst.json.jshint.ui",1577186883957
stopped,bundle,org.eclipse.wst.json.npm.ui,1.0.0.v201605201503,"org.eclipse.wst.json.npm.ui",1577186883957
stopped,bundle,org.eclipse.wst.json.ui,1.0.100.v201612232120,"org.eclipse.wst.json.ui",1577186883957
stopped,bundle,org.eclipse.wst.sse.ui,1.3.600.v201704250123,"org.eclipse.wst.sse.ui",1577186883958
stopped,bundle,com.adobe.flashbuilder.multiplatform.android.ui,4.7.0.349722,"com.adobe.flashbuilder.multiplatform.android.ui",1577186883958
stopped,bundle,com.adobe.flashbuilder.multiplatform.ios.ui,4.7.0.349722,"com.adobe.flashbuilder.multiplatform.ios.ui",1577186883958
stopped,bundle,com.adobe.flashbuilder.project.multiplatform.ui,4.7.0.349722,"com.adobe.flashbuilder.project.multiplatform.ui",1577186883975
stopped,bundle,com.adobe.flexbuilder.ajaxbridge,4.7.0.349722,"com.adobe.flexbuilder.ajaxbridge",1577186883988
stopped,bundle,com.adobe.flexbuilder.dcrad,4.7.0.349722,"com.adobe.flexbuilder.dcrad",1577186883988
stopped,bundle,com.adobe.flexbuilder.standalone,4.7.0.349722,"com.adobe.flexbuilder.standalone",1577186884009
stopped,bundle,com.adobe.flexbuilder.debug.ui,4.7.0.349722,"com.adobe.flexbuilder.debug.ui",1577186884009
stopped,bundle,com.adobe.flexbuilder.mxml.editor,4.7.0.349722,"com.adobe.flexbuilder.mxml.editor",1577186884021
stopped,bundle,com.adobe.flexbuilder.css.editor,4.7.0.349722,"com.adobe.flexbuilder.css.editor",1577186884034
stopped,bundle,com.adobe.flexbuilder.exportimport,4.7.0.349722,"com.adobe.flexbuilder.exportimport",1577186884034
stopped,bundle,com.adobe.flexbuilder.flashbridge,4.7.0.349722,"com.adobe.flexbuilder.flashbridge",1577186884047
stopped,bundle,com.adobe.flexbuilder.flexunit,4.7.0.349722,"com.adobe.flexbuilder.flexunit",1577186884048
stopped,bundle,com.adobe.flexbuilder.as.editor,4.7.0.349722,"com.adobe.flexbuilder.as.editor",1577186884056
stopped,bundle,com.adobe.flexbuilder.importartwork,4.7.0.349722,"com.adobe.flexbuilder.importartwork",1577186884069
stopped,bundle,com.adobe.flexbuilder.tengine,4.7.0.349722,"com.adobe.flexbuilder.tengine",1577186884082
stopped,bundle,com.adobe.flexbuilder.editorcore,4.7.0.349722,"com.adobe.flexbuilder.editorcore",1577186884097
stopped,bundle,com.adobe.flashbuilder.launching.multiplatform.ui,4.7.0.349722,"com.adobe.flashbuilder.launching.multiplatform.ui",1577186884113
stopped,bundle,com.adobe.flexbuilder.launching.ui,4.7.0.349722,"com.adobe.flexbuilder.launching.ui",1577186884126
stopped,bundle,com.adobe.flexbuilder.project.ui,4.7.0.349722,"com.adobe.flexbuilder.project.ui",1577186884126
stopped,bundle,com.adobe.flexbuilder.debug,4.7.0.349722,"com.adobe.flexbuilder.debug",1577186884139
stopped,bundle,com.adobe.flash.profiler,4.7.0.349722,"com.adobe.flash.profiler",1577186884147
stopped,bundle,com.adobe.flexide.exportimport,4.7.0.349722,"com.adobe.flexide.exportimport",1577186884153
stopped,bundle,com.adobe.flexide.fonts,4.7.0.349722,"com.adobe.flexide.fonts",1577186884171
stopped,bundle,com.adobe.flexide.designitems,4.7.0.349722,"com.adobe.flexide.designitems",1577186884186
